MHWs vs. heat flux
…
# Compare RMSE quantiles
ALL_cor_stack %>% 
  filter(rmse > 0) %>% 
  group_by(run, region, ts, Parameter2) %>% 
  summarise(q10 = quantile(rmse, 0.10), 
            q50 = quantile(rmse, 0.50),
            q90 = quantile(rmse, 0.90)) %>% 
  pivot_wider(names_from = run, values_from = q10:q90)

# A tibble: 90 x 9
# Groups:   region, ts [18]
   region ts    Parameter2 q10_new q10_old q50_new q50_old q90_new q90_old
   <chr>  <fct> <chr>        <dbl>   <dbl>   <dbl>   <dbl>   <dbl>   <dbl>
 1 cbs    onset lhf         0.0806   0.172   0.231   0.352   0.748   0.755
 2 cbs    onset lwr         0.115    0.215   0.311   0.378   0.829   0.880
 3 cbs    onset qnet        0.0694   0.115   0.297   0.318   0.692   0.712
 4 cbs    onset shf         0.0795   0.163   0.270   0.4     0.843   0.876
 5 cbs    onset swr         0.0833   0.173   0.245   0.344   0.912   0.899
 6 cbs    full  lhf         0.0810   0.153   0.223   0.297   0.626   0.752
 7 cbs    full  lwr         0.0863   0.186   0.270   0.349   0.79    0.887
 8 cbs    full  qnet        0.104    0.112   0.295   0.283   0.642   0.718
 9 cbs    full  shf         0.0915   0.150   0.219   0.326   0.646   0.780
10 cbs    full  swr         0.112    0.182   0.261   0.356   0.912   0.825
# … with 80 more rows
…
